[
  {
    "name": "Artur",
    "surname": "Zaluga",
    "photo": "https://scontent-waw1-1.xx.fbcdn.net/t31.0-8/s960x960/12375254_1939672429591314_2315389444884810268_o.jpg",
    "age": 25,
    "phone": "503-423-234"
  },
  
  {
    "name": "Wojciech",
    "surname": "Idcza",
    "photo": "https://scontent-waw1-1.xx.fbcdn.net/v/t1.0-9/10945055_728065630640875_5348987458708703385_n.jpg?oh=579c8e046395a06e32b696a8acb1e66d&oe=58109503",
    "age": 25,
    "phone": "603-233-774"
  },
  { 
    "name": "Krzysztof",
    "surname": "Antczka",
    "photo": "https://scontent-waw1-1.xx.fbcdn.net/v/t1.0-9/12313696_1238451446181872_8556623289098122664_n.jpg?oh=033a1e5c5c7ba7062039f25e057eb201&oe=58559C8A",
    "age": 27,
    "phone": "502-293-274"
  },
  {
    "name": "Andrzej",
    "surname": "Piotrowicz",
    "photo": "https://scontent-waw1-1.xx.fbcdn.net/v/t1.0-9/13000271_1086532961421102_1679207112083105977_n.jpg?oh=6b9a55cd96b8ba62c09fd44950a15122&oe=584825B3",
    "age": 21,
    "phone": "243-243-237"
  },
  {
    "name": "Gabriel",
    "surname": "Szymczak",
    "photo": "https://scontent-waw1-1.xx.fbcdn.net/v/t1.0-9/12742606_1000132560066560_3517116658405083337_n.jpg?oh=7b22a012745699183d8920d1c8eb1de9&oe=5848012E",
    "age": 22,
    "phone": "793-283-231"
  },
  {
    "name": "Michał",
    "surname": "Kozłowski",
    "photo": "https://scontent-waw1-1.xx.fbcdn.net/v/t1.0-9/12042995_1062362207121277_3366397819389885208_n.jpg?oh=6d362d53433554e1f58bd9edc1193913&oe=585A1E22",
    "age": 25,
    "phone": "643-233-224"
  }
]